{
    "interactionModel": {
        "languageModel": {
            "invocationName": "carbon footprint",
            "intents": [
                {
                    "name": "AMAZON.FallbackIntent",
                    "samples": []
                },
                {
                    "name": "AMAZON.CancelIntent",
                    "samples": []
                },
                {
                    "name": "AMAZON.HelpIntent",
                    "samples": []
                },
                {
                    "name": "AMAZON.StopIntent",
                    "samples": []
                },
                {
                    "name": "AMAZON.NavigateHomeIntent",
                    "samples": []
                },
                {
                    "name": "applianceIntent",
                    "slots": [
                        {
                            "name": "time",
                            "type": "AMAZON.DURATION"
                        },
                        {
                            "name": "quantity",
                            "type": "AMAZON.NUMBER"
                        },
                        {
                            "name": "appliances",
                            "type": "appliances"
                        },
                        {
                            "name": "appliance_spec",
                            "type": "appliance_spec"
                        },
                        {
                            "name": "size",
                            "type": "appliance_size"
                        },
                        {
                            "name": "country",
                            "type": "AMAZON.Country"
                        },
                        {
                            "name": "emission_type",
                            "type": "emission_type"
                        }
                    ],
                    "samples": [
                        "what are {emission_type} emissions for {quantity} {size} {appliance_spec} {appliances} for {time} of usage",
                        "please tell me {emission_type} emission for an {appliance_spec} {appliances} in {country}",
                        "tell me the amount of {emission_type} emitted when a {size} {appliances} is used for {time}",
                        "When two {size} {appliances} are used for {time} in {country} how much {emission_type} is emitted",
                        "{emission_type} emissions for {quantity} {size} {appliances} in {country} for {time}",
                        "{emission_type} emissions for a {quantity} {size} {appliance_spec} {appliances} for {time} of usage",
                        "what are emmisions for a {size} {appliances} in {country}",
                        "How much {emission_type} is emitted when a {appliance_spec} {appliances} is used in {country}",
                        "what are emissions for {size} {appliance_spec} {appliances}",
                        "what are different emissions for a {size} {appliances} in {country}",
                        "emissions for a {appliances} {appliance_spec} in {country}",
                        "what is {emission_type} emissions for a {appliance_spec} {appliances}",
                        "emissions for a {size} {appliance_spec} {appliances} in {country}",
                        "{emission_type} emissions for {time} usage of a {appliance_spec} {appliances} in {country}",
                        "{emission_type} emissions due to {size} {appliance_spec} {appliances} used for {time} in {country}"
                    ]
                },
                {
                    "name": "electricity_intent",
                    "slots": [
                        {
                            "name": "quantity",
                            "type": "AMAZON.NUMBER"
                        },
                        {
                            "name": "country",
                            "type": "AMAZON.Country"
                        },
                        {
                            "name": "emission_type",
                            "type": "emission_type"
                        }
                    ],
                    "samples": [
                        "how much emissions are produced due to {quantity} kwh of electricty consumed",
                        "{emission_type} emissions for {quantity} units of electricity consumed in {country}",
                        "{emission_type} emissions for electricity consumed in {country}"
                    ]
                },
                {
                    "name": "flight_intent",
                    "slots": [
                        {
                            "name": "passangers",
                            "type": "AMAZON.NUMBER"
                        },
                        {
                            "name": "origin",
                            "type": "AMAZON.Airport"
                        },
                        {
                            "name": "destination",
                            "type": "AMAZON.Airport"
                        },
                        {
                            "name": "emission_type",
                            "type": "emission_type"
                        }
                    ],
                    "samples": [
                        "emissions for flights from {origin} to {destination}",
                        "emissions for flight from {origin} to {destination} with {passangers} passengers",
                        "{emission_type} emissions for flight from {origin} to {destination}",
                        "what are {emission_type} emissions for a flight from {origin} to {destination}"
                    ]
                },
                {
                    "name": "fuel_intent",
                    "slots": [],
                    "samples": []
                }
            ],
            "types": [
                {
                    "name": "emission_type",
                    "values": [
                        {
                            "name": {
                                "value": "N2O",
                                "synonyms": [
                                    "nitrous",
                                    "nitrous oxide",
                                    "N2O"
                                ]
                            }
                        },
                        {
                            "name": {
                                "value": "CH4",
                                "synonyms": [
                                    "methane",
                                    "CH4"
                                ]
                            }
                        },
                        {
                            "name": {
                                "value": "CO2",
                                "synonyms": [
                                    "carbon",
                                    "carbon dioxide",
                                    "CO2"
                                ]
                            }
                        }
                    ]
                },
                {
                    "name": "appliance_spec",
                    "values": [
                        {
                            "name": {
                                "value": "type",
                                "synonyms": [
                                    "quick recovery",
                                    "instantaneous",
                                    "queen",
                                    "king",
                                    "with element",
                                    "automatic",
                                    "standard",
                                    "S",
                                    "Plasma",
                                    "LCD",
                                    "CRT",
                                    "600L",
                                    "500L",
                                    "250L",
                                    "Convection",
                                    "Conventional",
                                    "LED",
                                    "incandescent",
                                    "fluoroscent",
                                    "CFL",
                                    "portable",
                                    "vertical",
                                    "450L",
                                    "300L",
                                    "200L",
                                    "ceiling",
                                    "exhaust",
                                    "monitor and printer",
                                    "with monitor",
                                    "wired in",
                                    "rotary",
                                    "cabinet",
                                    "double",
                                    "single",
                                    "fixed",
                                    "portable",
                                    "ducted"
                                ]
                            }
                        },
                        {
                            "name": {
                                "value": "curler",
                                "synonyms": [
                                    "curler"
                                ]
                            }
                        }
                    ]
                },
                {
                    "name": "appliances",
                    "values": [
                        {
                            "name": {
                                "value": "hair",
                                "synonyms": [
                                    "hair"
                                ]
                            }
                        },
                        {
                            "name": {
                                "value": "Dishwasher",
                                "synonyms": [
                                    "dish washer",
                                    "dishwasher"
                                ]
                            }
                        },
                        {
                            "name": {
                                "value": "Heat pump",
                                "synonyms": [
                                    "heat pumps",
                                    "heat pump"
                                ]
                            }
                        },
                        {
                            "name": {
                                "value": "Shaver",
                                "synonyms": [
                                    "shavers",
                                    "shaver"
                                ]
                            }
                        },
                        {
                            "name": {
                                "value": "Bio septic system",
                                "synonyms": [
                                    "bio septic systems",
                                    "bio septic system"
                                ]
                            }
                        },
                        {
                            "name": {
                                "value": "Sewing Machine",
                                "synonyms": [
                                    "sewing machines",
                                    "sewing machine"
                                ]
                            }
                        },
                        {
                            "name": {
                                "value": "Domestic water pressure pump",
                                "synonyms": [
                                    "water pumps",
                                    "water pump",
                                    "domestic water pressure pumps",
                                    "domestic water pressure pump"
                                ]
                            }
                        },
                        {
                            "name": {
                                "value": "Ceramic halogen",
                                "synonyms": [
                                    "ceramic halogen"
                                ]
                            }
                        },
                        {
                            "name": {
                                "value": "Grill",
                                "synonyms": [
                                    "grills",
                                    "grill"
                                ]
                            }
                        },
                        {
                            "name": {
                                "value": "Slow cooker",
                                "synonyms": [
                                    "slow cookers",
                                    "slow cooker"
                                ]
                            }
                        },
                        {
                            "name": {
                                "value": "Range Hood",
                                "synonyms": [
                                    "range hoods",
                                    "range hood"
                                ]
                            }
                        },
                        {
                            "name": {
                                "value": "Lighting",
                                "synonyms": [
                                    "lightings",
                                    "lighting"
                                ]
                            }
                        },
                        {
                            "name": {
                                "value": "Freezer",
                                "synonyms": [
                                    "freezers",
                                    "freezer"
                                ]
                            }
                        },
                        {
                            "name": {
                                "value": "Deep fryer",
                                "synonyms": [
                                    "deep fryers",
                                    "deep fryer"
                                ]
                            }
                        },
                        {
                            "name": {
                                "value": "Washing machine",
                                "synonyms": [
                                    "washing machines",
                                    "washing machine"
                                ]
                            }
                        },
                        {
                            "name": {
                                "value": "Television",
                                "synonyms": [
                                    "TVs",
                                    "TV",
                                    "televisions",
                                    "television"
                                ]
                            }
                        },
                        {
                            "name": {
                                "value": "Record Player",
                                "synonyms": [
                                    "record player"
                                ]
                            }
                        },
                        {
                            "name": {
                                "value": "Hair dryer",
                                "synonyms": [
                                    "hair dryers",
                                    "hair dryer"
                                ]
                            }
                        },
                        {
                            "name": {
                                "value": "Fan",
                                "synonyms": [
                                    "fans",
                                    "fan"
                                ]
                            }
                        },
                        {
                            "name": {
                                "value": "Air cooler",
                                "synonyms": [
                                    "air coolers",
                                    "air cooler"
                                ]
                            }
                        },
                        {
                            "name": {
                                "value": "Drill",
                                "synonyms": [
                                    "drills",
                                    "drill"
                                ]
                            }
                        },
                        {
                            "name": {
                                "value": "Garbage disposal unit",
                                "synonyms": [
                                    "garbage disposal",
                                    "garbage disposal unit"
                                ]
                            }
                        },
                        {
                            "name": {
                                "value": "Air conditioner",
                                "synonyms": [
                                    "ACs",
                                    "AC",
                                    "air conditioners",
                                    "air conditioner"
                                ]
                            }
                        },
                        {
                            "name": {
                                "value": "Clothes dryer",
                                "synonyms": [
                                    "clothes dryer"
                                ]
                            }
                        },
                        {
                            "name": {
                                "value": "Nebuliser",
                                "synonyms": [
                                    "nebulisers",
                                    "nebuliser"
                                ]
                            }
                        },
                        {
                            "name": {
                                "value": "Ironing machine",
                                "synonyms": [
                                    "ironing machines",
                                    "ironing machine"
                                ]
                            }
                        },
                        {
                            "name": {
                                "value": "Food mixer",
                                "synonyms": [
                                    "food mixers",
                                    "food mixer"
                                ]
                            }
                        },
                        {
                            "name": {
                                "value": "Computer",
                                "synonyms": [
                                    "PCs",
                                    "PC",
                                    "computers",
                                    "computer"
                                ]
                            }
                        },
                        {
                            "name": {
                                "value": "Hair styler",
                                "synonyms": [
                                    "hair stylers",
                                    "hair styler"
                                ]
                            }
                        },
                        {
                            "name": {
                                "value": "Hair curler",
                                "synonyms": [
                                    "hair curlers",
                                    "hair curler"
                                ]
                            }
                        },
                        {
                            "name": {
                                "value": "Blanket",
                                "synonyms": [
                                    "blankets",
                                    "blanket"
                                ]
                            }
                        },
                        {
                            "name": {
                                "value": "Laptop",
                                "synonyms": [
                                    "laptops",
                                    "laptop"
                                ]
                            }
                        },
                        {
                            "name": {
                                "value": "Refrigerator",
                                "synonyms": [
                                    "refrigerators",
                                    "refrigerator"
                                ]
                            }
                        },
                        {
                            "name": {
                                "value": "Fry Pan",
                                "synonyms": [
                                    "frying pans",
                                    "frying pan",
                                    "fry pans",
                                    "fry pan"
                                ]
                            }
                        },
                        {
                            "name": {
                                "value": "Storage Heater",
                                "synonyms": [
                                    "storage heaters",
                                    "storage heater"
                                ]
                            }
                        },
                        {
                            "name": {
                                "value": "Water heater",
                                "synonyms": [
                                    "water heaters",
                                    "water heater"
                                ]
                            }
                        },
                        {
                            "name": {
                                "value": "Water bed",
                                "synonyms": [
                                    "water beds",
                                    "water bed"
                                ]
                            }
                        },
                        {
                            "name": {
                                "value": "Radio",
                                "synonyms": [
                                    "radios",
                                    "radio"
                                ]
                            }
                        },
                        {
                            "name": {
                                "value": "Juice extractor",
                                "synonyms": [
                                    "juice extractors",
                                    "juice extractor"
                                ]
                            }
                        },
                        {
                            "name": {
                                "value": "Toaster",
                                "synonyms": [
                                    "toasters",
                                    "toaster"
                                ]
                            }
                        },
                        {
                            "name": {
                                "value": "Oven",
                                "synonyms": [
                                    "ovens",
                                    "oven"
                                ]
                            }
                        },
                        {
                            "name": {
                                "value": "Spa heater",
                                "synonyms": [
                                    "spa heaters",
                                    "spa heater"
                                ]
                            }
                        },
                        {
                            "name": {
                                "value": "Welder",
                                "synonyms": [
                                    "welders",
                                    "welder"
                                ]
                            }
                        },
                        {
                            "name": {
                                "value": "DVD player",
                                "synonyms": [
                                    "dvd players",
                                    "dvd player"
                                ]
                            }
                        },
                        {
                            "name": {
                                "value": "Saw",
                                "synonyms": [
                                    "saws",
                                    "saw"
                                ]
                            }
                        },
                        {
                            "name": {
                                "value": "Microven",
                                "synonyms": [
                                    "microwave",
                                    "microwaves",
                                    "microvens",
                                    "microven"
                                ]
                            }
                        },
                        {
                            "name": {
                                "value": "Griddle",
                                "synonyms": [
                                    "griddle"
                                ]
                            }
                        },
                        {
                            "name": {
                                "value": "Hotplate",
                                "synonyms": [
                                    "hotplates",
                                    "hotplate"
                                ]
                            }
                        },
                        {
                            "name": {
                                "value": "Iron",
                                "synonyms": [
                                    "irons",
                                    "iron"
                                ]
                            }
                        },
                        {
                            "name": {
                                "value": "Swimming Pool Pump",
                                "synonyms": [
                                    "Pool Pumps",
                                    "Pool Pump",
                                    "Swimming Pool Pumps",
                                    "Swimming Pool Pump"
                                ]
                            }
                        },
                        {
                            "name": {
                                "value": "Vacuum cleaner",
                                "synonyms": [
                                    "vacuum cleaners",
                                    "vacuum cleaner"
                                ]
                            }
                        },
                        {
                            "name": {
                                "value": "Salt water chlorinator",
                                "synonyms": [
                                    "Salt water chlorinators",
                                    "Salt water chlorinator"
                                ]
                            }
                        },
                        {
                            "name": {
                                "value": "Towel rail",
                                "synonyms": [
                                    "towel rails",
                                    "towel rail"
                                ]
                            }
                        },
                        {
                            "name": {
                                "value": "Stereo",
                                "synonyms": [
                                    "stereos",
                                    "stereo"
                                ]
                            }
                        },
                        {
                            "name": {
                                "value": "Coffee percolator",
                                "synonyms": [
                                    "coffee Percolators",
                                    "Coffee Percolator"
                                ]
                            }
                        },
                        {
                            "name": {
                                "value": "Kettle",
                                "synonyms": [
                                    "Kettles",
                                    "Kettle"
                                ]
                            }
                        },
                        {
                            "name": {
                                "value": "Kiln Pottery",
                                "synonyms": [
                                    "Kiln Potteries",
                                    "Kiln Pottery"
                                ]
                            }
                        }
                    ]
                },
                {
                    "name": "appliance_size",
                    "values": [
                        {
                            "name": {
                                "value": "size",
                                "synonyms": [
                                    "large",
                                    "medium",
                                    "small"
                                ]
                            }
                        }
                    ]
                },
                {
                    "name": "fuel",
                    "values": [
                        {
                            "name": {
                                "value": "fuelCNG",
                                "synonyms": [
                                    "Compressed Natural Gas",
                                    "Compressed Natural gas",
                                    "Compressed natural gas",
                                    "compressed natural gas",
                                    "CNG"
                                ]
                            }
                        },
                        {
                            "name": {
                                "value": "fuelLPG",
                                "synonyms": [
                                    "Petroleum Gas",
                                    "petroleum gas",
                                    "liquid petroleum gas",
                                    "Liquid Petroleum Gas",
                                    "LPG"
                                ]
                            }
                        },
                        {
                            "name": {
                                "value": "fuelB20",
                                "synonyms": [
                                    "B 20",
                                    "B20"
                                ]
                            }
                        },
                        {
                            "name": {
                                "value": "fuelBioDiesel",
                                "synonyms": [
                                    "Bio Diesel",
                                    "BioDiesel"
                                ]
                            }
                        },
                        {
                            "name": {
                                "value": "fuelEthanol",
                                "synonyms": [
                                    "Ethanol"
                                ]
                            }
                        },
                        {
                            "name": {
                                "value": "fuelE85",
                                "synonyms": [
                                    "E 85",
                                    "E85"
                                ]
                            }
                        },
                        {
                            "name": {
                                "value": "fuelE25",
                                "synonyms": [
                                    "E25",
                                    "E 25"
                                ]
                            }
                        },
                        {
                            "name": {
                                "value": "fuelE10",
                                "synonyms": [
                                    "E 10",
                                    "E10"
                                ]
                            }
                        },
                        {
                            "name": {
                                "value": "fuelGasoline",
                                "synonyms": [
                                    "Gasoline"
                                ]
                            }
                        },
                        {
                            "name": {
                                "value": "fuelDiesel",
                                "synonyms": [
                                    "Diesel"
                                ]
                            }
                        },
                        {
                            "name": {
                                "value": "fuelPetrol",
                                "synonyms": [
                                    "petrol"
                                ]
                            }
                        }
                    ]
                }
            ]
        }
    }
}